Practica4/simulation/qsim/practica4.msim.vcd
$comment
	File created using the following command:
		vcd file practica4.msim.vcd -direction
$end
$date
	Thu Mar 17 21:36:34 2022
$end
$version
	ModelSim Version 10.5b
$end
$timescale
	1ps
$end

$scope module practica4_vhd_vec_tst $end
$var wire 1 ! CLK $end
$var wire 1 " Edo_sig [2] $end
$var wire 1 # Edo_sig [1] $end
$var wire 1 $ Edo_sig [0] $end
$var wire 1 % edoPres [2] $end
$var wire 1 & edoPres [1] $end
$var wire 1 ' edoPres [0] $end
$var wire 1 ( O [4] $end
$var wire 1 ) O [3] $end
$var wire 1 * O [2] $end
$var wire 1 + O [1] $end
$var wire 1 , O [0] $end
$var wire 1 - prueba [1] $end
$var wire 1 . prueba [0] $end
$var wire 1 / RESET $end
$var wire 1 0 W $end
$var wire 1 1 X $end
$var wire 1 2 Y $end
$var wire 1 3 Z $end

$scope module i1 $end
$var wire 1 4 gnd $end
$var wire 1 5 vcc $end
$var wire 1 6 unknown $end
$var wire 1 7 devoe $end
$var wire 1 8 devclrn $end
$var wire 1 9 devpor $end
$var wire 1 : ww_devoe $end
$var wire 1 ; ww_devclrn $end
$var wire 1 < ww_devpor $end
$var wire 1 = ww_Edo_sig [2] $end
$var wire 1 > ww_Edo_sig [1] $end
$var wire 1 ? ww_Edo_sig [0] $end
$var wire 1 @ ww_W $end
$var wire 1 A ww_X $end
$var wire 1 B ww_Y $end
$var wire 1 C ww_Z $end
$var wire 1 D ww_CLK $end
$var wire 1 E ww_RESET $end
$var wire 1 F ww_edoPres [2] $end
$var wire 1 G ww_edoPres [1] $end
$var wire 1 H ww_edoPres [0] $end
$var wire 1 I ww_O [4] $end
$var wire 1 J ww_O [3] $end
$var wire 1 K ww_O [2] $end
$var wire 1 L ww_O [1] $end
$var wire 1 M ww_O [0] $end
$var wire 1 N ww_prueba [1] $end
$var wire 1 O ww_prueba [0] $end
$var wire 1 P \~QUARTUS_CREATED_ADC1~_CHSEL_bus\ [4] $end
$var wire 1 Q \~QUARTUS_CREATED_ADC1~_CHSEL_bus\ [3] $end
$var wire 1 R \~QUARTUS_CREATED_ADC1~_CHSEL_bus\ [2] $end
$var wire 1 S \~QUARTUS_CREATED_ADC1~_CHSEL_bus\ [1] $end
$var wire 1 T \~QUARTUS_CREATED_ADC1~_CHSEL_bus\ [0] $end
$var wire 1 U \~QUARTUS_CREATED_ADC2~_CHSEL_bus\ [4] $end
$var wire 1 V \~QUARTUS_CREATED_ADC2~_CHSEL_bus\ [3] $end
$var wire 1 W \~QUARTUS_CREATED_ADC2~_CHSEL_bus\ [2] $end
$var wire 1 X \~QUARTUS_CREATED_ADC2~_CHSEL_bus\ [1] $end
$var wire 1 Y \~QUARTUS_CREATED_ADC2~_CHSEL_bus\ [0] $end
$var wire 1 Z \RESET~inputclkctrl_INCLK_bus\ [3] $end
$var wire 1 [ \RESET~inputclkctrl_INCLK_bus\ [2] $end
$var wire 1 \ \RESET~inputclkctrl_INCLK_bus\ [1] $end
$var wire 1 ] \RESET~inputclkctrl_INCLK_bus\ [0] $end
$var wire 1 ^ \CLK~inputclkctrl_INCLK_bus\ [3] $end
$var wire 1 _ \CLK~inputclkctrl_INCLK_bus\ [2] $end
$var wire 1 ` \CLK~inputclkctrl_INCLK_bus\ [1] $end
$var wire 1 a \CLK~inputclkctrl_INCLK_bus\ [0] $end
$var wire 1 b \~QUARTUS_CREATED_GND~I_combout\ $end
$var wire 1 c \~QUARTUS_CREATED_UNVM~~busy\ $end
$var wire 1 d \~QUARTUS_CREATED_ADC1~~eoc\ $end
$var wire 1 e \~QUARTUS_CREATED_ADC2~~eoc\ $end
$var wire 1 f \Edo_sig[2]~output_o\ $end
$var wire 1 g \Edo_sig[1]~output_o\ $end
$var wire 1 h \Edo_sig[0]~output_o\ $end
$var wire 1 i \edoPres[2]~output_o\ $end
$var wire 1 j \edoPres[1]~output_o\ $end
$var wire 1 k \edoPres[0]~output_o\ $end
$var wire 1 l \O[4]~output_o\ $end
$var wire 1 m \O[3]~output_o\ $end
$var wire 1 n \O[2]~output_o\ $end
$var wire 1 o \O[1]~output_o\ $end
$var wire 1 p \O[0]~output_o\ $end
$var wire 1 q \prueba[1]~output_o\ $end
$var wire 1 r \prueba[0]~output_o\ $end
$var wire 1 s \CLK~input_o\ $end
$var wire 1 t \CLK~inputclkctrl_outclk\ $end
$var wire 1 u \RESET~input_o\ $end
$var wire 1 v \RESET~inputclkctrl_outclk\ $end
$var wire 1 w \Y~input_o\ $end
$var wire 1 x \W~input_o\ $end
$var wire 1 y \inst|Mux5~0_combout\ $end
$var wire 1 z \Z~input_o\ $end
$var wire 1 { \X~input_o\ $end
$var wire 1 | \inst|Mux13~0_combout\ $end
$var wire 1 } \inst4|O~0_combout\ $end
$var wire 1 ~ \inst4|O~1_combout\ $end
$var wire 1 !! \inst|Mux4~0_combout\ $end
$var wire 1 "! \inst9|internal_value[0]~0_combout\ $end
$var wire 1 #! \inst|Mux3~0_combout\ $end
$var wire 1 $! \inst2|O[2]~0_combout\ $end
$var wire 1 %! \inst3|O[3]~0_combout\ $end
$var wire 1 &! \inst|Mux15~0_combout\ $end
$var wire 1 '! \inst3|O[1]~1_combout\ $end
$var wire 1 (! \inst3|O[0]~2_combout\ $end
$var wire 1 )! \inst9|internal_value\ [2] $end
$var wire 1 *! \inst9|internal_value\ [1] $end
$var wire 1 +! \inst9|internal_value\ [0] $end
$var wire 1 ,! \inst|ALT_INV_Mux15~0_combout\ $end
$var wire 1 -! \inst|ALT_INV_Mux4~0_combout\ $end
$upscope $end
$upscope $end
$enddefinitions $end
#0
$dumpvars
0!
1/
00
01
02
03
04
15
x6
17
18
19
1:
1;
1<
0@
0A
0B
0C
0D
1E
0b
zc
zd
ze
0f
0g
1h
0i
0j
0k
0l
0m
0n
1o
1p
0q
0r
0s
0t
1u
1v
0w
0x
0y
0z
0{
0|
0}
0~
0!!
1"!
0#!
0$!
0%!
1&!
1'!
1(!
0,!
1-!
0=
0>
1?
0F
0G
0H
0I
0J
0K
1L
1M
0N
0O
0)!
0*!
0+!
1^
1_
1`
0a
1Z
1[
1\
1]
0P
0Q
0R
0S
0T
0U
0V
0W
0X
0Y
0"
0#
1$
0%
0&
0'
0(
0)
0*
1+
1,
0-
0.
$end
#10000
10
1@
1x
1~
#20000
1!
1D
1s
1a
1t
1+!
1k
1y
1|
1!!
1$!
0-!
1H
1f
1l
1q
1r
0"!
0~
1'
0h
1=
1I
1N
1O
1#!
0$!
0'!
0?
1"
1(
1.
1-
0$
0o
0f
1g
0L
0=
1>
0+
1#
0"
#40000
0!
0D
0s
0a
0t
#60000
1!
1D
1s
1a
1t
0+!
1*!
1j
0k
0y
0|
0!!
1'!
1-!
1G
0H
1o
0l
0q
0r
1"!
1~
0'
1&
1h
1L
0I
0N
0O
1?
1+
0(
0.
0-
1$
#80000
0!
0D
0s
0a
0t
#100000
1!
1D
1s
1a
1t
1+!
1k
1y
1!!
1$!
0&!
0'!
0(!
1,!
0-!
1H
0p
0o
1f
1r
0"!
0~
1'
0h
1n
0M
0L
1=
1O
0!!
0#!
1(!
0?
1K
0,
0+
1"
1.
1-!
0$
1*
1p
0g
1"!
1h
1M
0>
1?
1,
0#
1$
#120000
0!
0D
0s
0a
0t
#130000
12
1B
1w
#140000
1!
1D
1s
1a
1t
1)!
0*!
0j
1i
0y
1#!
0$!
1&!
1'!
0(!
0,!
0G
1F
0p
1o
0f
1g
0r
1~
0&
1%
0n
0M
1L
0=
1>
0O
0K
0,
1+
1#
0"
0.
0*
#160000
0!
0D
0s
0a
0t
#170000
11
1A
1{
#180000
1!
1D
1s
1a
1t
0)!
1*!
1j
0i
1y
1!!
1$!
0&!
0'!
1,!
0-!
1G
0F
0o
1f
1r
0"!
1}
0~
1&
0%
0h
1n
0L
1=
1O
0!!
0#!
1(!
1~
0?
1K
0+
1"
1.
1-!
0$
1*
1p
0g
1!!
1#!
0(!
1"!
1h
0-!
1M
0>
0p
1g
0"!
1?
1,
0#
0h
0M
1>
1$
0?
0,
1#
0$
#190000
13
1C
1z
#200000
0!
0D
0s
0a
0t
#210000
00
0@
0x
#220000
1!
1D
1s
1a
1t
1)!
0+!
0k
1i
0y
1|
0$!
1%!
1&!
1'!
1(!
0,!
0H
1F
1p
1o
1m
0f
1l
1q
0r
0'
1%
0n
1M
1L
1J
0=
1I
1N
0O
0K
1,
1+
1)
1(
0"
0.
1-
0*
#240000
0!
0D
0s
0a
0t
#260000
1!
1D
1s
1a
1t
0)!
0i
0|
0!!
0%!
1-!
0F
0m
0l
0q
1"!
0}
0%
1h
0J
0I
0N
0~
1?
0)
0(
0-
1$
#280000
0!
0D
0s
0a
0t
#290000
02
0B
0w
#300000
1!
1D
1s
1a
1t
1+!
1k
1y
0#!
1$!
0&!
0'!
1,!
1H
0o
1f
0g
1r
1}
1'
1n
0L
1=
0>
1O
1~
1K
0+
0#
1"
1.
1*
1!!
1#!
0(!
0-!
0p
1g
0"!
0h
0M
1>
0?
0,
1#
0$
#320000
0!
0D
0s
0a
0t
#340000
1!
01
1D
0A
0{
1s
1a
0}
0~
1t
0!!
0#!
1(!
1)!
0+!
1-!
1p
0g
1"!
1h
0k
1i
0y
1|
1&!
1'!
1M
0>
0,!
1?
0H
1F
1,
0#
1o
1l
1q
0r
1}
1$
0'
1%
0n
1L
1I
1N
0O
0K
1+
1(
0.
1-
0*
#360000
0!
0D
0s
0a
0t
#380000
1!
1D
1s
1a
1t
1+!
0*!
0j
1k
0|
1#!
0$!
0(!
0G
1H
0p
0f
1g
0l
0q
0}
1'
0&
0M
0=
1>
0I
0N
0,
0(
1#
0"
0-
#400000
0!
0D
0s
0a
0t
#420000
1!
1D
1s
1a
1t
0)!
1*!
1j
0i
1y
0#!
1$!
0&!
0'!
1(!
1,!
1G
0F
1p
0o
1f
0g
1r
1&
0%
1n
1M
0L
1=
0>
1O
1K
1,
0+
0#
1"
1.
1*
#440000
0!
0D
0s
0a
0t
#460000
1!
1D
1s
1a
1t
1)!
0*!
0j
1i
0y
1#!
0$!
1&!
1'!
0(!
0,!
0G
1F
0p
1o
0f
1g
0r
0&
1%
0n
0M
1L
0=
1>
0O
0K
0,
1+
1#
0"
0.
0*
#480000
0!
03
0D
0C
0z
0s
0a
0t
#500000
1!
1D
1s
1a
1t
0)!
1*!
1j
0i
1y
0#!
1$!
0&!
0'!
1(!
1,!
1G
0F
1p
0o
1f
0g
1r
1&
0%
1n
1M
0L
1=
0>
1O
1K
1,
0+
0#
1"
1.
1*
#520000
0!
0D
0s
0a
0t
#540000
1!
1D
1s
1a
1t
1)!
0*!
0j
1i
0y
1#!
0$!
1&!
1'!
0(!
0,!
0G
1F
0p
1o
0f
1g
0r
0&
1%
0n
0M
1L
0=
1>
0O
0K
0,
1+
1#
0"
0.
0*
#560000
0!
0D
0s
0a
0t
#580000
1!
1D
1s
1a
1t
0)!
1*!
1j
0i
1y
0#!
1$!
0&!
0'!
1(!
1,!
1G
0F
1p
0o
1f
0g
1r
1&
0%
1n
1M
0L
1=
0>
1O
1K
1,
0+
0#
1"
1.
1*
#600000
0!
0D
0s
0a
0t
#620000
1!
1D
1s
1a
1t
1)!
0*!
0j
1i
0y
1#!
0$!
1&!
1'!
0(!
0,!
0G
1F
0p
1o
0f
1g
0r
0&
1%
0n
0M
1L
0=
1>
0O
0K
0,
1+
1#
0"
0.
0*
#640000
0!
0D
0s
0a
0t
#660000
1!
1D
1s
1a
1t
0)!
1*!
1j
0i
1y
0#!
1$!
0&!
0'!
1(!
1,!
1G
0F
1p
0o
1f
0g
1r
1&
0%
1n
1M
0L
1=
0>
1O
1K
1,
0+
0#
1"
1.
1*
#680000
0!
0D
0s
0a
0t
#700000
1!
1D
1s
1a
1t
1)!
0*!
0j
1i
0y
1#!
0$!
1&!
1'!
0(!
0,!
0G
1F
0p
1o
0f
1g
0r
0&
1%
0n
0M
1L
0=
1>
0O
0K
0,
1+
1#
0"
0.
0*
#720000
0!
0D
0s
0a
0t
#740000
1!
1D
1s
1a
1t
0)!
1*!
1j
0i
1y
0#!
1$!
0&!
0'!
1(!
1,!
1G
0F
1p
0o
1f
0g
1r
1&
0%
1n
1M
0L
1=
0>
1O
1K
1,
0+
0#
1"
1.
1*
#760000
0!
0D
0s
0a
0t
#780000
1!
1D
1s
1a
1t
1)!
0*!
0j
1i
0y
1#!
0$!
1&!
1'!
0(!
0,!
0G
1F
0p
1o
0f
1g
0r
0&
1%
0n
0M
1L
0=
1>
0O
0K
0,
1+
1#
0"
0.
0*
#800000
0!
0D
0s
0a
0t
#820000
1!
1D
1s
1a
1t
0)!
1*!
1j
0i
1y
0#!
1$!
0&!
0'!
1(!
1,!
1G
0F
1p
0o
1f
0g
1r
1&
0%
1n
1M
0L
1=
0>
1O
1K
1,
0+
0#
1"
1.
1*
#840000
0!
0D
0s
0a
0t
#860000
1!
1D
1s
1a
1t
1)!
0*!
0j
1i
0y
1#!
0$!
1&!
1'!
0(!
0,!
0G
1F
0p
1o
0f
1g
0r
0&
1%
0n
0M
1L
0=
1>
0O
0K
0,
1+
1#
0"
0.
0*
#870000
0/
0E
0u
0]
0v
0)!
0+!
0k
0i
0#!
1(!
0H
0F
1p
0g
0'
0%
1M
0>
1,
0#
#880000
0!
0D
0s
0a
0t
#900000
1!
1D
1s
1a
1t
#920000
0!
0D
0s
0a
0t
#940000
1!
1D
1s
1a
1t
#960000
0!
0D
0s
0a
0t
#980000
1!
1D
1s
1a
1t
