Practica6/simulation/qsim/practica6.msim.vcd
$comment
	File created using the following command:
		vcd file practica6.msim.vcd -direction
$end
$date
	Fri May 13 11:48:53 2022
$end
$version
	ModelSim Version 10.5b
$end
$timescale
	1ps
$end

$scope module practica6_vhd_vec_tst $end
$var wire 1 ! ENTRADA_Interrupciones [3] $end
$var wire 1 " ENTRADA_Interrupciones [2] $end
$var wire 1 # ENTRADA_Interrupciones [1] $end
$var wire 1 $ ENTRADA_Interrupciones [0] $end
$var wire 1 % ENTRADA_Transformacion [3] $end
$var wire 1 & ENTRADA_Transformacion [2] $end
$var wire 1 ' ENTRADA_Transformacion [1] $end
$var wire 1 ( ENTRADA_Transformacion [0] $end
$var wire 1 ) Estado [3] $end
$var wire 1 * Estado [2] $end
$var wire 1 + Estado [1] $end
$var wire 1 , Estado [0] $end
$var wire 1 - INT $end
$var wire 1 . reloj $end
$var wire 1 / reset $end
$var wire 1 0 salida [5] $end
$var wire 1 1 salida [4] $end
$var wire 1 2 salida [3] $end
$var wire 1 3 salida [2] $end
$var wire 1 4 salida [1] $end
$var wire 1 5 salida [0] $end
$var wire 1 6 X $end
$var wire 1 7 Y $end

$scope module i1 $end
$var wire 1 8 gnd $end
$var wire 1 9 vcc $end
$var wire 1 : unknown $end
$var wire 1 ; devoe $end
$var wire 1 < devclrn $end
$var wire 1 = devpor $end
$var wire 1 > ww_devoe $end
$var wire 1 ? ww_devclrn $end
$var wire 1 @ ww_devpor $end
$var wire 1 A ww_Estado [3] $end
$var wire 1 B ww_Estado [2] $end
$var wire 1 C ww_Estado [1] $end
$var wire 1 D ww_Estado [0] $end
$var wire 1 E ww_X $end
$var wire 1 F ww_Y $end
$var wire 1 G ww_INT $end
$var wire 1 H ww_reloj $end
$var wire 1 I ww_reset $end
$var wire 1 J ww_ENTRADA_Transformacion [3] $end
$var wire 1 K ww_ENTRADA_Transformacion [2] $end
$var wire 1 L ww_ENTRADA_Transformacion [1] $end
$var wire 1 M ww_ENTRADA_Transformacion [0] $end
$var wire 1 N ww_ENTRADA_Interrupciones [3] $end
$var wire 1 O ww_ENTRADA_Interrupciones [2] $end
$var wire 1 P ww_ENTRADA_Interrupciones [1] $end
$var wire 1 Q ww_ENTRADA_Interrupciones [0] $end
$var wire 1 R ww_salida [5] $end
$var wire 1 S ww_salida [4] $end
$var wire 1 T ww_salida [3] $end
$var wire 1 U ww_salida [2] $end
$var wire 1 V ww_salida [1] $end
$var wire 1 W ww_salida [0] $end
$var wire 1 X \~QUARTUS_CREATED_ADC1~_CHSEL_bus\ [4] $end
$var wire 1 Y \~QUARTUS_CREATED_ADC1~_CHSEL_bus\ [3] $end
$var wire 1 Z \~QUARTUS_CREATED_ADC1~_CHSEL_bus\ [2] $end
$var wire 1 [ \~QUARTUS_CREATED_ADC1~_CHSEL_bus\ [1] $end
$var wire 1 \ \~QUARTUS_CREATED_ADC1~_CHSEL_bus\ [0] $end
$var wire 1 ] \~QUARTUS_CREATED_ADC2~_CHSEL_bus\ [4] $end
$var wire 1 ^ \~QUARTUS_CREATED_ADC2~_CHSEL_bus\ [3] $end
$var wire 1 _ \~QUARTUS_CREATED_ADC2~_CHSEL_bus\ [2] $end
$var wire 1 ` \~QUARTUS_CREATED_ADC2~_CHSEL_bus\ [1] $end
$var wire 1 a \~QUARTUS_CREATED_ADC2~_CHSEL_bus\ [0] $end
$var wire 1 b \inst10|cuenta[25]~clkctrl_INCLK_bus\ [3] $end
$var wire 1 c \inst10|cuenta[25]~clkctrl_INCLK_bus\ [2] $end
$var wire 1 d \inst10|cuenta[25]~clkctrl_INCLK_bus\ [1] $end
$var wire 1 e \inst10|cuenta[25]~clkctrl_INCLK_bus\ [0] $end
$var wire 1 f \reloj~inputclkctrl_INCLK_bus\ [3] $end
$var wire 1 g \reloj~inputclkctrl_INCLK_bus\ [2] $end
$var wire 1 h \reloj~inputclkctrl_INCLK_bus\ [1] $end
$var wire 1 i \reloj~inputclkctrl_INCLK_bus\ [0] $end
$var wire 1 j \~QUARTUS_CREATED_GND~I_combout\ $end
$var wire 1 k \~QUARTUS_CREATED_UNVM~~busy\ $end
$var wire 1 l \~QUARTUS_CREATED_ADC1~~eoc\ $end
$var wire 1 m \~QUARTUS_CREATED_ADC2~~eoc\ $end
$var wire 1 n \Estado[3]~output_o\ $end
$var wire 1 o \Estado[2]~output_o\ $end
$var wire 1 p \Estado[1]~output_o\ $end
$var wire 1 q \Estado[0]~output_o\ $end
$var wire 1 r \salida[5]~output_o\ $end
$var wire 1 s \salida[4]~output_o\ $end
$var wire 1 t \salida[3]~output_o\ $end
$var wire 1 u \salida[2]~output_o\ $end
$var wire 1 v \salida[1]~output_o\ $end
$var wire 1 w \salida[0]~output_o\ $end
$var wire 1 x \reloj~input_o\ $end
$var wire 1 y \reloj~inputclkctrl_outclk\ $end
$var wire 1 z \inst10|Add0~0_combout\ $end
$var wire 1 { \inst10|Add0~1\ $end
$var wire 1 | \inst10|Add0~2_combout\ $end
$var wire 1 } \inst10|Add0~3\ $end
$var wire 1 ~ \inst10|Add0~4_combout\ $end
$var wire 1 !! \inst10|Add0~5\ $end
$var wire 1 "! \inst10|Add0~6_combout\ $end
$var wire 1 #! \inst10|Add0~7\ $end
$var wire 1 $! \inst10|Add0~8_combout\ $end
$var wire 1 %! \inst10|Add0~9\ $end
$var wire 1 &! \inst10|Add0~10_combout\ $end
$var wire 1 '! \inst10|Add0~11\ $end
$var wire 1 (! \inst10|Add0~12_combout\ $end
$var wire 1 )! \inst10|Add0~13\ $end
$var wire 1 *! \inst10|Add0~14_combout\ $end
$var wire 1 +! \inst10|Add0~15\ $end
$var wire 1 ,! \inst10|Add0~16_combout\ $end
$var wire 1 -! \inst10|Add0~17\ $end
$var wire 1 .! \inst10|Add0~18_combout\ $end
$var wire 1 /! \inst10|Add0~19\ $end
$var wire 1 0! \inst10|Add0~20_combout\ $end
$var wire 1 1! \inst10|Add0~21\ $end
$var wire 1 2! \inst10|Add0~22_combout\ $end
$var wire 1 3! \inst10|Add0~23\ $end
$var wire 1 4! \inst10|Add0~24_combout\ $end
$var wire 1 5! \inst10|Add0~25\ $end
$var wire 1 6! \inst10|Add0~26_combout\ $end
$var wire 1 7! \inst10|Add0~27\ $end
$var wire 1 8! \inst10|Add0~28_combout\ $end
$var wire 1 9! \inst10|Add0~29\ $end
$var wire 1 :! \inst10|Add0~30_combout\ $end
$var wire 1 ;! \inst10|Add0~31\ $end
$var wire 1 <! \inst10|Add0~32_combout\ $end
$var wire 1 =! \inst10|Add0~33\ $end
$var wire 1 >! \inst10|Add0~34_combout\ $end
$var wire 1 ?! \inst10|Add0~35\ $end
$var wire 1 @! \inst10|Add0~36_combout\ $end
$var wire 1 A! \inst10|Add0~37\ $end
$var wire 1 B! \inst10|Add0~38_combout\ $end
$var wire 1 C! \inst10|Add0~39\ $end
$var wire 1 D! \inst10|Add0~40_combout\ $end
$var wire 1 E! \inst10|Add0~41\ $end
$var wire 1 F! \inst10|Add0~42_combout\ $end
$var wire 1 G! \inst10|Add0~43\ $end
$var wire 1 H! \inst10|Add0~44_combout\ $end
$var wire 1 I! \inst10|Add0~45\ $end
$var wire 1 J! \inst10|Add0~46_combout\ $end
$var wire 1 K! \inst10|Add0~47\ $end
$var wire 1 L! \inst10|Add0~48_combout\ $end
$var wire 1 M! \inst10|Add0~49\ $end
$var wire 1 N! \inst10|Add0~50_combout\ $end
$var wire 1 O! \inst10|cuenta[25]~clkctrl_outclk\ $end
$var wire 1 P! \instsec|inst4|Add0~2_combout\ $end
$var wire 1 Q! \reset~input_o\ $end
$var wire 1 R! \inst14|Mux1~0_combout\ $end
$var wire 1 S! \inst14|Mux4~0_combout\ $end
$var wire 1 T! \inst14|Mux5~0_combout\ $end
$var wire 1 U! \inst14|Mux0~0_combout\ $end
$var wire 1 V! \inst8reg4|valor_interno~q\ $end
$var wire 1 W! \INT~input_o\ $end
$var wire 1 X! \instsec|inst3|selector~5_combout\ $end
$var wire 1 Y! \instsec|inst3|selector~6_combout\ $end
$var wire 1 Z! \inst14|Mux7~0_combout\ $end
$var wire 1 [! \instsec|inst5|salida[3]~1_combout\ $end
$var wire 1 \! \X~input_o\ $end
$var wire 1 ]! \Y~input_o\ $end
$var wire 1 ^! \instsec|inst3|selector~7_combout\ $end
$var wire 1 _! \instsec|inst3|selector~8_combout\ $end
$var wire 1 `! \instsec|inst3|selector~3_combout\ $end
$var wire 1 a! \instsec|inst3|selector~4_combout\ $end
$var wire 1 b! \instsec|inst3|selector~9_combout\ $end
$var wire 1 c! \instsec|inst5|salida[3]~2_combout\ $end
$var wire 1 d! \instsec|inst4|Add0~1_combout\ $end
$var wire 1 e! \ENTRADA_Transformacion[2]~input_o\ $end
$var wire 1 f! \ENTRADA_Interrupciones[2]~input_o\ $end
$var wire 1 g! \instsec|inst5|salida[2]~5_combout\ $end
$var wire 1 h! \instsec|inst5|salida[2]~6_combout\ $end
$var wire 1 i! \inst14|Mux8~0_combout\ $end
$var wire 1 j! \instsec|inst3|selector~2_combout\ $end
$var wire 1 k! \instsec|inst5|salida[3]~0_combout\ $end
$var wire 1 l! \ENTRADA_Transformacion[1]~input_o\ $end
$var wire 1 m! \inst14|Mux2~0_combout\ $end
$var wire 1 n! \ENTRADA_Interrupciones[1]~input_o\ $end
$var wire 1 o! \instsec|inst5|salida[1]~7_combout\ $end
$var wire 1 p! \instsec|inst5|salida[1]~8_combout\ $end
$var wire 1 q! \inst14|Mux3~0_combout\ $end
$var wire 1 r! \instsec|inst|valor_interno[0]~0_combout\ $end
$var wire 1 s! \ENTRADA_Transformacion[0]~input_o\ $end
$var wire 1 t! \ENTRADA_Interrupciones[0]~input_o\ $end
$var wire 1 u! \instsec|inst5|salida[0]~9_combout\ $end
$var wire 1 v! \instsec|inst5|salida[0]~10_combout\ $end
$var wire 1 w! \instsec|inst4|Add0~0_combout\ $end
$var wire 1 x! \ENTRADA_Transformacion[3]~input_o\ $end
$var wire 1 y! \inst14|Mux0~1_combout\ $end
$var wire 1 z! \ENTRADA_Interrupciones[3]~input_o\ $end
$var wire 1 {! \instsec|inst5|salida[3]~3_combout\ $end
$var wire 1 |! \instsec|inst5|salida[3]~4_combout\ $end
$var wire 1 }! \inst14|Mux9~0_combout\ $end
$var wire 1 ~! \inst14|Mux10~0_combout\ $end
$var wire 1 !" \inst14|Mux11~0_combout\ $end
$var wire 1 "" \inst14|Mux12~0_combout\ $end
$var wire 1 #" \inst14|Mux13~0_combout\ $end
$var wire 1 $" \inst14|Mux14~0_combout\ $end
$var wire 1 %" \inst10|cuenta\ [27] $end
$var wire 1 &" \inst10|cuenta\ [26] $end
$var wire 1 '" \inst10|cuenta\ [25] $end
$var wire 1 (" \inst10|cuenta\ [24] $end
$var wire 1 )" \inst10|cuenta\ [23] $end
$var wire 1 *" \inst10|cuenta\ [22] $end
$var wire 1 +" \inst10|cuenta\ [21] $end
$var wire 1 ," \inst10|cuenta\ [20] $end
$var wire 1 -" \inst10|cuenta\ [19] $end
$var wire 1 ." \inst10|cuenta\ [18] $end
$var wire 1 /" \inst10|cuenta\ [17] $end
$var wire 1 0" \inst10|cuenta\ [16] $end
$var wire 1 1" \inst10|cuenta\ [15] $end
$var wire 1 2" \inst10|cuenta\ [14] $end
$var wire 1 3" \inst10|cuenta\ [13] $end
$var wire 1 4" \inst10|cuenta\ [12] $end
$var wire 1 5" \inst10|cuenta\ [11] $end
$var wire 1 6" \inst10|cuenta\ [10] $end
$var wire 1 7" \inst10|cuenta\ [9] $end
$var wire 1 8" \inst10|cuenta\ [8] $end
$var wire 1 9" \inst10|cuenta\ [7] $end
$var wire 1 :" \inst10|cuenta\ [6] $end
$var wire 1 ;" \inst10|cuenta\ [5] $end
$var wire 1 <" \inst10|cuenta\ [4] $end
$var wire 1 =" \inst10|cuenta\ [3] $end
$var wire 1 >" \inst10|cuenta\ [2] $end
$var wire 1 ?" \inst10|cuenta\ [1] $end
$var wire 1 @" \inst10|cuenta\ [0] $end
$var wire 1 A" \instsec|inst|valor_interno\ [3] $end
$var wire 1 B" \instsec|inst|valor_interno\ [2] $end
$var wire 1 C" \instsec|inst|valor_interno\ [1] $end
$var wire 1 D" \instsec|inst|valor_interno\ [0] $end
$var wire 1 E" \inst1|valor_interno\ [3] $end
$var wire 1 F" \inst1|valor_interno\ [2] $end
$var wire 1 G" \inst1|valor_interno\ [1] $end
$var wire 1 H" \inst1|valor_interno\ [0] $end
$var wire 1 I" \inst3|valor_interno\ [3] $end
$var wire 1 J" \inst3|valor_interno\ [2] $end
$var wire 1 K" \inst3|valor_interno\ [1] $end
$var wire 1 L" \inst3|valor_interno\ [0] $end
$var wire 1 M" \inst4|valor_interno\ [1] $end
$var wire 1 N" \inst4|valor_interno\ [0] $end
$var wire 1 O" \inst5|valor_interno\ [1] $end
$var wire 1 P" \inst5|valor_interno\ [0] $end
$var wire 1 Q" \inst2|valor_interno\ [3] $end
$var wire 1 R" \inst2|valor_interno\ [2] $end
$var wire 1 S" \inst2|valor_interno\ [1] $end
$var wire 1 T" \inst2|valor_interno\ [0] $end
$var wire 1 U" \inst9|valor_interno\ [5] $end
$var wire 1 V" \inst9|valor_interno\ [4] $end
$var wire 1 W" \inst9|valor_interno\ [3] $end
$var wire 1 X" \inst9|valor_interno\ [2] $end
$var wire 1 Y" \inst9|valor_interno\ [1] $end
$var wire 1 Z" \inst9|valor_interno\ [0] $end
$upscope $end
$upscope $end
$enddefinitions $end
#0
$dumpvars
0-
0.
0/
06
07
08
19
x:
1;
1<
1=
1>
1?
1@
0E
0F
0G
0H
0I
0j
zk
zl
zm
0n
0o
0p
0q
0r
0s
0t
0u
0v
0w
0x
0y
1z
0{
0|
1}
0~
0!!
0"!
1#!
0$!
0%!
0&!
1'!
0(!
0)!
0*!
1+!
0,!
0-!
0.!
1/!
00!
01!
02!
13!
04!
05!
06!
17!
08!
09!
0:!
1;!
0<!
0=!
0>!
1?!
0@!
0A!
0B!
1C!
0D!
0E!
0F!
1G!
0H!
0I!
0J!
1K!
0L!
0M!
0N!
0O!
0P!
0Q!
0R!
0S!
0T!
0U!
0V!
0W!
0X!
0Y!
0Z!
0[!
0\!
0]!
0^!
0_!
0`!
0a!
0b!
1c!
0d!
0e!
0f!
1g!
0h!
0i!
0j!
1k!
0l!
0m!
0n!
1o!
0p!
0q!
1r!
0s!
0t!
1u!
0v!
0w!
0x!
0y!
0z!
1{!
0|!
0}!
0~!
0!"
0""
0#"
1$"
0!
0"
0#
0$
0%
0&
0'
0(
0A
0B
0C
0D
0J
0K
0L
0M
0N
0O
0P
0Q
0R
0S
0T
0U
0V
0W
x%"
x&"
0'"
0("
0)"
0*"
0+"
0,"
0-"
0."
0/"
00"
01"
02"
03"
04"
05"
06"
07"
08"
09"
0:"
0;"
0<"
0="
0>"
0?"
0@"
0A"
0B"
0C"
0D"
0E"
0F"
0G"
0H"
0I"
0J"
0K"
0L"
0M"
0N"
0O"
0P"
0Q"
0R"
0S"
0T"
0U"
0V"
0W"
0X"
0Y"
0Z"
1f
1g
1h
0i
1b
1c
1d
0e
0X
0Y
0Z
0[
0\
0]
0^
0_
0`
0a
0)
0*
0+
0,
00
01
02
03
04
05
$end
#10000
1.
16
1H
1E
1\!
1x
1i
1^!
1a!
1y
1@"
0z
1{
1|
#20000
0.
0H
0x
0i
0y
#30000
1.
1$
1H
1Q
1t!
1x
1i
1y
0@"
1?"
0|
0}
1z
0{
1|
1}
1~
0~
#40000
0.
0H
0x
0i
0y
#50000
1.
1H
1x
1i
1y
1@"
0z
1{
0|
0}
1~
#60000
0.
0$
1#
1(
0H
0Q
1P
1M
1s!
1n!
0t!
0x
0i
0y
#70000
1.
1H
1x
1i
1y
0@"
0?"
1>"
0~
1!!
1|
1}
1z
0{
0|
1~
0!!
1"!
0"!
#80000
0.
0H
0x
0i
0y
#90000
1.
1$
1H
1Q
1t!
1x
1i
1y
1@"
0z
1{
1|
#100000
0.
0H
0x
0i
0y
#110000
1.
1H
1x
1i
1y
0@"
1?"
0|
0}
1z
0{
1|
1}
0~
1!!
1"!
1~
0!!
0"!
#120000
0.
0$
0#
0(
1"
1'
0H
0Q
0P
1O
0M
1L
1l!
0s!
1f!
0n!
0t!
0x
0i
0y
#130000
1.
1H
1x
1i
1y
1@"
0z
1{
0|
0}
0~
1!!
1"!
#140000
0.
0H
0x
0i
0y
#150000
1.
1$
1H
1Q
1t!
1x
1i
1y
0@"
0?"
0>"
1="
0"!
0#!
1~
0!!
1|
1}
1z
0{
0|
0~
1"!
1#!
1$!
0$!
#160000
0.
0H
0x
0i
0y
#170000
1.
1H
1x
1i
1y
1@"
0z
1{
1|
#180000
0.
0$
1#
1(
17
0H
0Q
1P
1M
1F
1]!
1s!
1n!
0t!
0x
0i
0y
#190000
1.
1H
1x
1i
1y
0@"
1?"
0|
0}
1z
0{
1|
1}
1~
0~
#200000
0.
0H
0x
0i
0y
#210000
1.
1$
06
1H
1Q
0E
0\!
1t!
1x
1i
0^!
0a!
1y
1@"
0z
1{
0|
0}
1~
#220000
0.
0H
0x
0i
0y
#230000
1.
1H
1x
1i
1y
0@"
0?"
1>"
0~
1!!
1|
1}
1z
0{
0|
1~
0!!
0"!
0#!
1$!
1"!
1#!
0$!
#240000
0.
0$
0#
0(
0"
0'
1!
1&
0H
0Q
0P
0O
1N
0M
0L
1K
1e!
0l!
0s!
1z!
0f!
0n!
0t!
0x
0i
0y
#250000
1.
1H
1x
1i
1y
1@"
0z
1{
1|
#260000
0.
0H
0x
0i
0y
#270000
1.
1$
1H
1Q
1t!
1x
1i
1y
0@"
1?"
0|
0}
1z
0{
1|
1}
0~
1!!
0"!
0#!
1~
0!!
1"!
1#!
1$!
0$!
#280000
0.
0H
0x
0i
0y
#290000
1.
1H
1x
1i
1y
1@"
0z
1{
0|
0}
0~
1!!
0"!
0#!
1$!
#300000
0.
0$
1#
1(
0H
0Q
1P
1M
1s!
1n!
0t!
0x
0i
0y
#310000
1.
16
1H
1E
1\!
1x
1i
1^!
1a!
1y
0@"
0?"
0>"
0="
1<"
0$!
1%!
1"!
1#!
1~
0!!
1|
1}
1z
0{
0|
0~
0"!
1$!
0%!
1&!
0&!
#320000
0.
0H
0x
0i
0y
#330000
1.
1$
1H
1Q
1t!
1x
1i
1y
1@"
0z
1{
1|
#340000
0.
0H
0x
0i
0y
#350000
1.
07
1H
0F
0]!
1x
1i
1y
0@"
1?"
0|
0}
1z
0{
1|
1}
1~
0~
#360000
0.
0$
0#
0(
1"
1'
0H
0Q
0P
1O
0M
1L
1l!
0s!
1f!
0n!
0t!
0x
0i
0y
#370000
1.
1H
1x
1i
1y
1@"
0z
1{
0|
0}
1~
#380000
0.
0H
0x
0i
0y
#390000
1.
1$
1H
1Q
1t!
1x
1i
1y
0@"
0?"
1>"
0~
1!!
1|
1}
1z
0{
0|
1~
0!!
1"!
0"!
#400000
0.
0H
0x
0i
0y
#410000
1.
1H
1x
1i
1y
1@"
0z
1{
1|
#420000
0.
0$
1#
1(
0H
0Q
1P
1M
1s!
1n!
0t!
0x
0i
0y
#430000
1.
1H
1x
1i
1y
0@"
1?"
0|
0}
1z
0{
1|
1}
0~
1!!
1"!
1~
0!!
0"!
#440000
0.
1/
0H
1I
1Q!
0x
0i
0y
#450000
1.
1$
1H
1Q
1t!
1x
1i
1y
1@"
0z
1{
0|
0}
0~
1!!
1"!
#460000
0.
0H
0x
0i
0y
#470000
1.
1H
1x
1i
1y
0@"
0?"
0>"
1="
0"!
0#!
1~
0!!
1|
1}
1z
0{
0|
0~
1"!
1#!
0$!
1%!
1&!
1$!
0%!
0&!
#480000
0.
0$
0#
0(
0"
0'
0!
0&
1%
0H
0Q
0P
0O
0N
0M
0L
0K
1J
1x!
0e!
0l!
0s!
0z!
0f!
0n!
0t!
0x
0i
0y
#490000
1.
1H
1x
1i
1y
1@"
0z
1{
1|
#500000
0.
0H
0x
0i
0y
#510000
1.
1$
1H
1Q
1t!
1x
1i
1y
0@"
1?"
0|
0}
1z
0{
1|
1}
1~
0~
#520000
0.
1-
0H
1G
1W!
0x
0i
0y
#530000
1.
1H
1x
1i
1y
1@"
0z
1{
0|
0}
1~
#540000
0.
0$
1#
1(
0H
0Q
1P
1M
1s!
1n!
0t!
0x
0i
0y
#550000
1.
1H
1x
1i
1y
0@"
0?"
1>"
0~
1!!
1|
1}
1z
0{
0|
1~
0!!
0"!
0#!
0$!
1%!
1"!
1#!
1$!
0%!
1&!
0&!
#560000
0.
0H
0x
0i
0y
#570000
1.
1$
1H
1Q
1t!
1x
1i
1y
1@"
0z
1{
1|
#580000
0.
0H
0x
0i
0y
#590000
1.
1H
1x
1i
1y
0@"
1?"
0|
0}
1z
0{
1|
1}
0~
1!!
0"!
0#!
1~
0!!
1"!
1#!
0$!
1%!
1&!
1$!
0%!
0&!
#600000
0.
0$
0#
0(
1"
1'
0H
0Q
0P
1O
0M
1L
1l!
0s!
1f!
0n!
0t!
0x
0i
0y
#610000
1.
1H
1x
1i
1y
1@"
0z
1{
0|
0}
0~
1!!
0"!
0#!
0$!
1%!
1&!
#620000
0.
0H
0x
0i
0y
#630000
1.
1$
1H
1Q
1t!
1x
1i
1y
0@"
0?"
0>"
0="
0<"
1;"
0&!
0'!
1$!
0%!
1"!
1#!
1~
0!!
1|
1}
1z
0{
0|
0~
0"!
0$!
1&!
1'!
1(!
0(!
#640000
0.
0H
0x
0i
0y
#650000
1.
06
1H
0E
0\!
1x
1i
0^!
0a!
1y
1@"
0z
1{
1|
#660000
0.
0$
1#
1(
0H
0Q
1P
1M
1s!
1n!
0t!
0x
0i
0y
#670000
1.
1H
1x
1i
1y
0@"
1?"
0|
0}
1z
0{
1|
1}
1~
0~
#680000
0.
17
0H
1F
1]!
0x
0i
0y
#690000
1.
1$
1H
1Q
1t!
1x
1i
1y
1@"
0z
1{
0|
0}
1~
#700000
0.
0H
0x
0i
0y
#710000
1.
1H
1x
1i
1y
0@"
0?"
1>"
0~
1!!
1|
1}
1z
0{
0|
1~
0!!
1"!
0"!
#720000
0.
0$
0#
0(
0"
0'
1!
1&
0H
0Q
0P
0O
1N
0M
0L
1K
1e!
0l!
0s!
1z!
0f!
0n!
0t!
0x
0i
0y
#730000
1.
1H
1x
1i
1y
1@"
0z
1{
1|
#740000
0.
0H
0x
0i
0y
#750000
1.
1$
1H
1Q
1t!
1x
1i
1y
0@"
1?"
0|
0}
1z
0{
1|
1}
0~
1!!
1"!
1~
0!!
0"!
#760000
0.
0H
0x
0i
0y
#770000
1.
1H
1x
1i
1y
1@"
0z
1{
0|
0}
0~
1!!
1"!
#780000
0.
0$
1#
1(
0H
0Q
1P
1M
1s!
1n!
0t!
0x
0i
0y
#790000
1.
1H
1x
1i
1y
0@"
0?"
0>"
1="
0"!
0#!
1~
0!!
1|
1}
1z
0{
0|
0~
1"!
1#!
1$!
0$!
#800000
0.
0H
0x
0i
0y
#810000
1.
1$
1H
1Q
1t!
1x
1i
1y
1@"
0z
1{
1|
#820000
0.
0H
0x
0i
0y
#830000
1.
1H
1x
1i
1y
0@"
1?"
0|
0}
1z
0{
1|
1}
1~
0~
#840000
0.
0$
0#
0(
1"
1'
0H
0Q
0P
1O
0M
1L
1l!
0s!
1f!
0n!
0t!
0x
0i
0y
#850000
1.
1H
1x
1i
1y
1@"
0z
1{
0|
0}
1~
#860000
0.
0H
0x
0i
0y
#870000
1.
1$
1H
1Q
1t!
1x
1i
1y
0@"
0?"
1>"
0~
1!!
1|
1}
1z
0{
0|
1~
0!!
0"!
0#!
1$!
1"!
1#!
0$!
#880000
0.
0H
0x
0i
0y
#890000
1.
1H
1x
1i
1y
1@"
0z
1{
1|
#900000
0.
0$
1#
1(
0H
0Q
1P
1M
1s!
1n!
0t!
0x
0i
0y
#910000
1.
1H
1x
1i
1y
0@"
1?"
0|
0}
1z
0{
1|
1}
0~
1!!
0"!
0#!
1~
0!!
1"!
1#!
1$!
0$!
#920000
0.
0H
0x
0i
0y
#930000
1.
1$
1H
1Q
1t!
1x
1i
1y
1@"
0z
1{
0|
0}
0~
1!!
0"!
0#!
1$!
#940000
0.
0H
0x
0i
0y
#950000
1.
1H
1x
1i
1y
0@"
0?"
0>"
0="
1<"
0$!
1%!
1"!
1#!
1~
0!!
1|
1}
1z
0{
0|
0~
0"!
1$!
0%!
0&!
0'!
1(!
1&!
1'!
0(!
#960000
0.
0$
0#
0(
0"
0'
0!
0&
0%
0H
0Q
0P
0O
0N
0M
0L
0K
0J
0x!
0e!
0l!
0s!
0z!
0f!
0n!
0t!
0x
0i
0y
#970000
1.
07
1H
0F
0]!
1x
1i
1y
1@"
0z
1{
1|
#980000
0.
0H
0x
0i
0y
#990000
1.
1$
0-
1H
1Q
0G
0W!
1t!
1x
1i
1y
0@"
1?"
0|
0}
1z
0{
1|
1}
1~
0~
